<svg viewBox="0 0 30 30" xmlns="http://www.w3.org/2000/svg">
    <linearGradient id="a" gradientTransform="matrix(.41317 0 0 1.24513 5.22 -15.15)" gradientUnits="userSpaceOnUse" x1="47.874" x2="47.874" y1="36.261" y2="12.167">
        <stop offset="0" stop-color="#3b4252"/>
        <stop offset="1" stop-color="#2e3440"/>
    </linearGradient>
    <path d="M0 0v27c0 1.662 1.338 3 3 3h27V0H3z" fill="url(#a)"/>
    <g fill="#eceff4">
        <path d="M6 8v16h16V8zm1 1h14v14H7z"/>
        <path d="M13 19h4v1h-4zm-4-3.293l1.793 1.793L9 19.293l.707.707 2.5-2.5-2.5-2.5z"/>
    </g>
</svg>
