<?xml version="1.0" encoding="UTF-8" standalone="no"?>
<svg
   xmlns:dc="http://purl.org/dc/elements/1.1/"
   xmlns:cc="http://creativecommons.org/ns#"
   xmlns:rdf="http://www.w3.org/1999/02/22-rdf-syntax-ns#"
   xmlns:svg="http://www.w3.org/2000/svg"
   xmlns="http://www.w3.org/2000/svg"
   xmlns:sodipodi="http://sodipodi.sourceforge.net/DTD/sodipodi-0.dtd"
   xmlns:inkscape="http://www.inkscape.org/namespaces/inkscape"
   height="28"
   width="28"
   version="1.1"
   id="svg8"
   sodipodi:docname="add_down.svg"
   inkscape:version="0.92.5 (2060ec1f9f, 2020-04-08)">
  <metadata
     id="metadata14">
    <rdf:RDF>
      <cc:Work
         rdf:about="">
        <dc:format>image/svg+xml</dc:format>
        <dc:type
           rdf:resource="http://purl.org/dc/dcmitype/StillImage" />
      </cc:Work>
    </rdf:RDF>
  </metadata>
  <defs
     id="defs12" />
  <sodipodi:namedview
     pagecolor="#ffffff"
     bordercolor="#666666"
     borderopacity="1"
     objecttolerance="10"
     gridtolerance="10"
     guidetolerance="10"
     inkscape:pageopacity="0"
     inkscape:pageshadow="2"
     inkscape:window-width="1920"
     inkscape:window-height="1015"
     id="namedview10"
     showgrid="false"
     inkscape:snap-page="true"
     inkscape:zoom="11.9198"
     inkscape:cx="5.5619301"
     inkscape:cy="9.1815957"
     inkscape:window-x="0"
     inkscape:window-y="36"
     inkscape:window-maximized="1"
     inkscape:current-layer="svg8" />
  <rect
     style="fill:#2e3440;fill-opacity:1"
     id="rect821"
     width="28"
     height="28"
     x="0"
     y="0"
     rx="0" />
  <path
     d="M0 0v1h25c1.108 0 2 .892 2 2v22c0 .889.39 1.676 1 2.225V3c0-1.662-1.338-3-3-3z"
     fill="#3b4252"
     id="path2" />
  <rect
     fill="#3daee9"
     height="28"
     rx="3"
     width="28"
     id="rect4" />
  <path
     d="M8 8v12h6v-1H9V9h3v2h7v3h1v-4h-3V8h-5zm9 7v2h-2v1h2v2h1v-2h2v-1h-2v-2z"
     fill="#eceff4"
     id="path6" />
</svg>
