<?xml version="1.0" encoding="UTF-8" standalone="no"?>
<svg
   xmlns:dc="http://purl.org/dc/elements/1.1/"
   xmlns:cc="http://creativecommons.org/ns#"
   xmlns:rdf="http://www.w3.org/1999/02/22-rdf-syntax-ns#"
   xmlns:svg="http://www.w3.org/2000/svg"
   xmlns="http://www.w3.org/2000/svg"
   xmlns:sodipodi="http://sodipodi.sourceforge.net/DTD/sodipodi-0.dtd"
   xmlns:inkscape="http://www.inkscape.org/namespaces/inkscape"
   height="28"
   width="28"
   version="1.1"
   id="svg24"
   sodipodi:docname="close_over.svg"
   inkscape:version="0.92.5 (2060ec1f9f, 2020-04-08)">
  <metadata
     id="metadata30">
    <rdf:RDF>
      <cc:Work
         rdf:about="">
        <dc:format>image/svg+xml</dc:format>
        <dc:type
           rdf:resource="http://purl.org/dc/dcmitype/StillImage" />
      </cc:Work>
    </rdf:RDF>
  </metadata>
  <defs
     id="defs28" />
  <sodipodi:namedview
     pagecolor="#ffffff"
     bordercolor="#666666"
     borderopacity="1"
     objecttolerance="10"
     gridtolerance="10"
     guidetolerance="10"
     inkscape:pageopacity="0"
     inkscape:pageshadow="2"
     inkscape:window-width="1920"
     inkscape:window-height="1015"
     id="namedview26"
     showgrid="false"
     inkscape:zoom="11.9198"
     inkscape:cx="10.246995"
     inkscape:cy="10.038495"
     inkscape:window-x="0"
     inkscape:window-y="36"
     inkscape:window-maximized="1"
     inkscape:current-layer="svg24" />
  <rect
     height="28"
     rx="0"
     transform="scale(-1)"
     width="28"
     x="-28"
     y="-28"
     id="rect16"
     style="fill:#2e3440" />
  <path
     d="M14 8a6 6 0 0 0-6 6 6 6 0 0 0 6 6 6 6 0 0 0 6-6 6 6 0 0 0-6-6zm-2.293 3L14 13.293 16.293 11l.707.707L14.707 14 17 16.293l-.707.707L14 14.707 11.707 17 11 16.293 13.293 14 11 11.707z"
     fill="#da4453"
     id="path18" />
  <path
     d="M28 28v-1H3c-1.108 0-2-.892-2-2V3A2.98 2.98 0 0 0 0 .775V25c0 1.662 1.338 3 3 3z"
     fill="#3b4252"
     id="path20" />
  <path
     d="M25 28c1.662 0 3-1.338 3-3V3c0-1.662-1.338-3-3-3H3C1.338 0 0 1.338 0 3v22c0 1.662 1.338 3 3 3zm0-1H3c-1.108 0-2-.892-2-2V3c0-1.108.892-2 2-2h22c1.108 0 2 .892 2 2v22c0 1.108-.892 2-2 2z"
     fill="#3daee9"
     id="path22" />
</svg>
